<?xml version="1.0" encoding="utf-8"?>
<!-- Generator: Adobe Illustrator 19.1.0, SVG Export Plug-In . SVG Version: 6.00 Build 0)  -->
<svg version="1.1" id="Layer_1" xmlns="http://www.w3.org/2000/svg" xmlns:xlink="http://www.w3.org/1999/xlink" x="0px" y="0px"
	 viewBox="0 0 50 50" enable-background="new 0 0 50 50" xml:space="preserve">
<g>
	<path fill="#C8C8CD" d="M25,2c12.7,0,23,10.3,23,23S37.7,48,25,48S2,37.7,2,25S12.3,2,25,2 M25,0C11.2,0,0,11.2,0,25s11.2,25,25,25
		c13.8,0,25-11.2,25-25S38.8,0,25,0L25,0z"/>
	<path fill="#FFFFFF" d="M12.5,20.9c0-0.5,0.2-1,0.6-1.4c0.8-0.8,2-0.8,2.7,0l9.2,9.2l9.2-9.2c0.8-0.8,2-0.8,2.7,0
		c0.8,0.8,0.8,2,0,2.7L26.4,32.9c-0.4,0.4-0.9,0.6-1.4,0.6c-0.5,0-1-0.2-1.4-0.6L13.1,22.3C12.7,21.9,12.5,21.4,12.5,20.9z"/>
</g>
</svg>
