<?xml version="1.0" standalone="no"?>
<!DOCTYPE svg PUBLIC "-//W3C//DTD SVG 1.1//EN" "http://www.w3.org/Graphics/SVG/1.1/DTD/svg11.dtd" >
<svg xmlns="http://www.w3.org/2000/svg">
<metadata>Generated by IcoMoon</metadata>
<defs>
<font id="icomoon" horiz-adv-x="1024">
<font-face units-per-em="1024" ascent="960" descent="-64" />
<missing-glyph horiz-adv-x="1024" />
<glyph unicode="&#x20;" horiz-adv-x="512" d="" />
<glyph unicode="&#xe900;" glyph-name="facebook" horiz-adv-x="532" d="M533.611 952.529v-160.083h-98.718c-3.369 0.446-7.264 0.7-11.218 0.7-23.216 0-44.382-8.773-60.366-23.183l0.080 0.071c-11.851-16.44-18.953-36.989-18.953-59.196 0-2.641 0.1-5.259 0.298-7.85l-0.021 0.344v-116.861h180.894l-24.013-183.562h-156.348v-466.91h-188.365v466.91h-156.882v183.562h156.882v132.869c-0.293 4.421-0.46 9.585-0.46 14.787 0 63.085 24.546 120.438 64.607 163.028l-0.114-0.123c41.465 39.171 97.55 63.251 159.258 63.251 4.044 0 8.064-0.103 12.058-0.308l-0.56 0.023c5.133 0.093 11.186 0.145 17.252 0.145 43.949 0 87.252-2.767 129.743-8.137l-5.054 0.521z" />
<glyph unicode="&#xe901;" glyph-name="linkedin" d="M16.578 621.43h211.686v-681.604h-211.686zM122.421 960c0.189 0.001 0.413 0.002 0.638 0.002 67.963 0 123.059-55.095 123.059-123.059s-55.095-123.059-123.059-123.059c-67.963 0-123.058 55.094-123.059 123.057v0c-0.001 0.189-0.002 0.413-0.002 0.638 0 67.611 54.81 122.421 122.421 122.421 0.001 0 0.001 0 0.002 0v0zM357.061 617.604h202.76v-93.091c38.216 70.119 111.384 116.9 195.479 116.9 3.458 0 6.897-0.079 10.316-0.236l-0.485 0.018c213.599 0 255.044-138.361 255.044-318.804l4.463-373.639h-211.049l-3.826 331.557c0 79.064-3.826 180.443-112.219 179.168s-123.696-95.004-123.696-184.269v-335.382h-211.049z" />
<glyph unicode="&#xe902;" glyph-name="linkedin2" d="M16.896 620.032h212.48v-684.032h-212.48zM122.88 960c0.152 0.001 0.332 0.001 0.512 0.001 68.148 0 123.392-55.244 123.392-123.392s-55.244-123.392-123.392-123.392c-68.147 0-123.391 55.244-123.392 123.391v0c0 0 0 0.001 0 0.001 0 67.968 54.953 123.1 122.852 123.391h0.028zM362.496 620.032h204.8v-93.696h3.072c39.318 66.645 110.755 110.652 192.471 110.652 1.815 0 3.625-0.022 5.429-0.065l-0.268 0.005c214.528 0 256-141.824 256-325.632v-375.296h-211.968v332.8c0 79.36 0 181.248-110.080 181.248s-127.488-86.528-127.488-175.616v-338.432h-211.968z" />
<glyph unicode="&#xe903;" glyph-name="member" horiz-adv-x="1170" d="M585.076 265.076c151.273 0 274.153 155.927 274.153 347.229s-122.88 347.695-274.153 347.695-274.153-155.927-274.153-347.229 122.88-347.695 274.153-347.695zM585.076 886.924c108.916 0 201.076-125.673 201.076-274.153s-93.091-274.153-201.076-274.153-201.076 125.673-201.076 274.153 92.16 274.153 201.076 274.153zM1133.847-64c20.075 0.303 36.233 16.648 36.233 36.767 0 3.48-0.483 6.847-1.387 10.038l0.063-0.259-73.076 219.229c-3.893 11.489-12.99 20.279-24.409 23.672l-0.26 0.066-256 73.076c-3.088 0.949-6.637 1.496-10.314 1.496-5.911 0-11.492-1.413-16.423-3.918l0.207 0.095-202.938-101.469-203.404 102.865c-4.725 2.411-10.306 3.823-16.217 3.823-3.677 0-7.226-0.547-10.571-1.563l0.257 0.067-256-73.076c-11.679-3.459-20.776-12.249-24.593-23.479l-0.076-0.259-74.938-220.625c-0.841-2.932-1.324-6.299-1.324-9.778 0-20.119 16.158-36.464 36.205-36.767h0.028c58.182 0 52.596 73.076 52.596 73.076l52.131 153.135 223.884 63.767 205.265-103.796c4.751-2.4 10.357-3.806 16.291-3.806s11.54 1.406 16.502 3.902l-0.211-0.096 206.662 103.331 223.884-63.767 51.2-153.135s-6.051-72.611 50.735-72.611z" />
<glyph unicode="&#xe904;" glyph-name="twitter" horiz-adv-x="1261" d="M1261.020 836.552c-35.83-52.347-78.794-96.686-128.109-132.883l-1.511-1.058c0-7.407 0-18.517 0-33.331-0.353-72.497-11.153-142.336-30.97-208.272l1.342 5.2c-22.872-75.655-54.401-141.607-94.308-201.498l1.722 2.747c-41.295-65.642-89.303-122.090-144.252-170.895l-0.8-0.697c-58.465-49.112-126.91-88.72-201.557-115.233l-4.601-1.425c-75.496-27.774-162.68-43.841-253.616-43.841-1.76 0-3.519 0.006-5.277 0.018l0.27-0.001c-2.089-0.022-4.558-0.034-7.030-0.034-145.936 0-281.701 43.548-395.009 118.358l2.685-1.666c17.448-1.973 37.672-3.098 58.159-3.098 1.253 0 2.506 0.004 3.758 0.013l-0.192-0.001c2.434-0.042 5.306-0.066 8.183-0.066 118.824 0 228.085 40.947 314.442 109.5l-1.043-0.8c-112.403 2.32-207.040 75.832-240.812 177.169l-0.529 1.83c14.65-2.35 31.546-3.696 48.754-3.703h0.008c24.316 0.387 47.638 3.967 69.778 10.339l-1.882-0.464c-60.121 12.089-111.337 43.974-147.781 88.434l-0.356 0.448c-38.324 43.295-61.725 100.568-61.725 163.308 0 0.309 0.001 0.617 0.002 0.925v-0.048 4.321c33.591-19.255 73.576-31.202 116.218-32.701l0.44-0.012c-34.061 23.783-61.563 54.64-80.799 90.585l-0.676 1.384c-19.434 34.881-30.876 76.515-30.876 120.821 0 0.924 0.005 1.846 0.015 2.767l-0.001-0.14c-0.003 0.448-0.004 0.978-0.004 1.508 0 47.483 13.077 91.911 35.826 129.88l-0.639-1.15c63.865-78.671 142.121-142.93 231.128-189.423l4.040-1.921c86.196-45.514 187.617-74.357 295.241-79.56l1.651-0.064c-3.933 17.699-6.187 38.028-6.187 58.883 0 0.999 0.005 1.996 0.015 2.993l-0.001-0.152c-0.073 2.247-0.115 4.889-0.115 7.54 0 69.708 28.889 132.669 75.348 177.564l0.071 0.068c46.795 46.224 111.137 74.775 182.149 74.775 74.049 0 140.847-31.047 188.087-80.833l0.108-0.115c61.858 11.852 116.922 33.312 166.49 63.004l-2.305-1.28c-18.418-62.495-58.714-113.624-111.826-145.654l-1.129-0.632c55.376 5.591 106.177 19.136 153.31 39.549l-3.321-1.28z" />
</font></defs></svg>